\BOOKMARK [2][]{Outline0.1}{\332vod}{}% 1
\BOOKMARK [2][]{Outline0.2}{Co je hotov\351 a z ceho m\341me radost}{}% 2
\BOOKMARK [2][]{Outline0.3}{Co je hotov\351, ale nen\355 to nasazen\351}{}% 3
\BOOKMARK [2][]{Outline0.4}{Na cem pracujeme a co rozhodne potrebujete}{}% 4
\BOOKMARK [2][]{Outline0.5}{Z\341ver}{}% 5
