\beamer@endinputifotherversion {3.36pt}
\select@language {czech}
\beamer@sectionintoc {1}{\IeC {\'U}vod}{3}{0}{1}
\beamer@sectionintoc {2}{Co je hotov\IeC {\'e} a z \IeC {\v c}eho m\IeC {\'a}me radost}{5}{0}{2}
\beamer@sectionintoc {3}{Co je hotov\IeC {\'e}, ale nen\IeC {\'\i } to nasazen\IeC {\'e}}{6}{0}{3}
\beamer@sectionintoc {4}{Na \IeC {\v c}em pracujeme a co rozhodn\IeC {\v e} pot\IeC {\v r}ebujete}{7}{0}{4}
\beamer@sectionintoc {5}{Z\IeC {\'a}v\IeC {\v e}r}{8}{0}{5}
